Fetch Inputs of 105959730...
binding_site_pdb: /home/html/medusadock/daemon/bin/../exec/105959730/binding_site_pdb
binding_site_mol2: /home/html/medusadock/daemon/bin/../exec/105959730/binding_site_mol2
/home/html/local/bin/babel -i pdb /home/html/medusadock/daemon/bin/../exec/105959730/binding_site_pdb -o mol2 /home/html/medusadock/daemon/bin/../exec/105959730/binding_site_mol2
==============================
*** Open Babel Warning  in parseAtomRecord
  WARNING: Problems reading a PDB file
  Problems reading a HETATM or ATOM record.
  According to the PDB specification,
  columns 77-78 should contain the element symbol of an atom.
  but OpenBabel found '  ' (atom 1)
1 molecule converted
1 warnings 14 audit log messages 
Docking...
Command: /home/html/medusadock/daemon/bin/../bin/medusa dock -p /home/html/medusadock/daemon/bin/../parameter -i /home/html/medusadock/daemon/bin/../exec/105959730/rec.pdb -m /home/html/medusadock/daemon/bin/../exec/105959730/lig.mol2 -M /home/html/medusadock/daemon/bin/../exec/105959730/binding_site_mol2 -c /home/html/medusadock/daemon/bin/../exec/105959730/constraints -o /home/html/medusadock/daemon/bin/../exec/105959730/dock.pdb -S $RANDOM -R -fast >/home/html/medusadock/daemon/bin/../exec/105959730/log.txt 2>&1
sh: line 1:  2902 Segmentation fault      (core dumped) /home/html/medusadock/daemon/bin/../bin/medusa dock -p /home/html/medusadock/daemon/bin/../parameter -i /home/html/medusadock/daemon/bin/../exec/105959730/rec.pdb -m /home/html/medusadock/daemon/bin/../exec/105959730/lig.mol2 -M /home/html/medusadock/daemon/bin/../exec/105959730/binding_site_mol2 -c /home/html/medusadock/daemon/bin/../exec/105959730/constraints -o /home/html/medusadock/daemon/bin/../exec/105959730/dock.pdb -S $RANDOM -R -fast > /home/html/medusadock/daemon/bin/../exec/105959730/log.txt 2>&1
Successfully written to medusadock/105959730/dock.pdb
Successfully written to medusadock/105959730/log.txt
Docking finished
Updating database.
Sending result email to hovakim.grabski@rau.am.
